<?xml version="1.0" encoding="UTF-8" standalone="no"?>
<svg width="765px" height="203px" viewBox="0 0 765 203" version="1.1" xmlns="http://www.w3.org/2000/svg" xmlns:xlink="http://www.w3.org/1999/xlink">
    <!-- Generator: Sketch 46.2 (44496) - http://www.bohemiancoding.com/sketch -->
    <title>Timeline</title>
    <desc>Created with Sketch.</desc>
    <defs></defs>
    <g id="Page-1" stroke="none" stroke-width="1" fill="none" fill-rule="evenodd">
        <g id="Sponsorship" transform="translate(-55.000000, -968.000000)">
            <g id="Card-3" transform="translate(40.000000, 903.000000)">
                <g id="Timeline" transform="translate(15.000000, 63.000000)">
                    <g id="base" transform="translate(0.000000, 50.000000)">
                        <polygon id="Fill-1" fill="#EEEEEF" points="0 65 765 65 765 40 0 40"></polygon>
                        <rect id="Rectangle-11" fill="#046A38" x="0" y="40" width="3" height="45"></rect>
                        <rect id="Rectangle-11-Copy" fill="#046A38" x="762" y="23" width="3" height="42"></rect>
                        <text id="SPONSORSHIP" font-family="OpenSans-Bold, Open Sans" font-size="12" font-weight="bold" fill="#000000">
                            <tspan x="0" y="104">SPONSORSHIP</tspan>
                        </text>
                        <text id="Application" font-family="OpenSans-Bold, Open Sans" font-size="12" font-weight="bold" fill="#000000">
                            <tspan x="685" y="13">Application</tspan>
                        </text>
                    </g>
                    <g id="content" transform="translate(32.000000, 0.000000)">
                        <text id="Practitioners-submit" font-family="OpenSans, Open Sans" font-size="12" font-weight="normal" line-spacing="15" fill="#000000">
                            <tspan x="0" y="28">Practitioners submit </tspan>
                            <tspan x="15.8115234" y="43">intent to apply</tspan>
                        </text>
                        <text id="Discuss-YE-performan" font-family="OpenSans, Open Sans" font-size="12" font-weight="normal" line-spacing="15" fill="#000000">
                            <tspan x="147" y="13">Discuss YE performance</tspan>
                            <tspan x="158.707031" y="28">rating and feedback</tspan>
                            <tspan x="172.116211" y="43">with Counselor</tspan>
                        </text>
                        <polygon id="Fill-32" fill="#646463" points="392.12 107.836 393.12 107.836 393.12 105.836 392.12 105.836"></polygon>
                        <polygon id="Fill-36" fill="#646463" points="612.12 107.836 613.12 107.836 613.12 105.836 612.12 105.836"></polygon>
                        <path d="M16.0001511,90 L83.6677704,90 L83.6677704,90 C84.0190332,90 84.34454,90.1842988 84.5252633,90.4855042 L98.3252633,113.485504 L98.3252633,113.485504 C98.6094115,113.959085 98.4558464,114.573345 97.9822661,114.857493 C97.8268507,114.950742 97.6490143,115 97.4677704,115 L29.8001511,115 L29.8001511,115 C29.4488883,115 29.1233814,114.815701 28.9426582,114.514496 L15.1426582,91.5144958 L15.1426582,91.5144958 C14.85851,91.0409155 15.0120751,90.4266552 15.4856554,90.1425071 C15.6410708,90.0492578 15.8189072,90 16.0001511,90 Z" id="Rectangle-7" fill="#86BC25"></path>
                        <path d="M89.0001511,90 L156.66777,90 L156.66777,90 C157.019033,90 157.34454,90.1842988 157.525263,90.4855042 L171.325263,113.485504 L171.325263,113.485504 C171.609411,113.959085 171.455846,114.573345 170.982266,114.857493 C170.826851,114.950742 170.649014,115 170.46777,115 L102.800151,115 L102.800151,115 C102.448888,115 102.123381,114.815701 101.942658,114.514496 L88.1426582,91.5144958 L88.1426582,91.5144958 C87.85851,91.0409155 88.0120751,90.4266552 88.4856554,90.1425071 C88.6410708,90.0492578 88.8189072,90 89.0001511,90 Z" id="Rectangle-7-Copy" fill="#0097A9"></path>
                        <text id="March" font-family="OpenSans-Bold, Open Sans" font-size="12" font-weight="bold" fill="#EEEEEF">
                            <tspan x="38" y="107">March</tspan>
                        </text>
                        <text id="April" font-family="OpenSans-Bold, Open Sans" font-size="12" font-weight="bold" fill="#EEEEEF">
                            <tspan x="115" y="107">April</tspan>
                        </text>
                        <path d="M162.76619,90 L250.43381,90 L250.43381,90 C250.785072,90 251.110579,90.1842988 251.291303,90.4855042 L265.091303,113.485504 L265.091303,113.485504 C265.375451,113.959085 265.221886,114.573345 264.748305,114.857493 C264.59289,114.950742 264.415054,115 264.23381,115 L176.56619,115 L176.56619,115 C176.214928,115 175.889421,114.815701 175.708697,114.514496 L161.908697,91.5144958 L161.908697,91.5144958 C161.624549,91.0409155 161.778114,90.4266552 162.251695,90.1425071 C162.40711,90.0492578 162.584946,90 162.76619,90 Z" id="Rectangle-7-Copy" fill="#86BC25"></path>
                        <text id="May-/-June" font-family="OpenSans-Bold, Open Sans" font-size="12" font-weight="bold" fill="#EEEEEF">
                            <tspan x="182" y="107">May / June</tspan>
                        </text>
                        <path d="M255.76619,90 L343.43381,90 L343.43381,90 C343.785072,90 344.110579,90.1842988 344.291303,90.4855042 L358.091303,113.485504 L358.091303,113.485504 C358.375451,113.959085 358.221886,114.573345 357.748305,114.857493 C357.59289,114.950742 357.415054,115 357.23381,115 L269.56619,115 L269.56619,115 C269.214928,115 268.889421,114.815701 268.708697,114.514496 L254.908697,91.5144958 L254.908697,91.5144958 C254.624549,91.0409155 254.778114,90.4266552 255.251695,90.1425071 C255.40711,90.0492578 255.584946,90 255.76619,90 Z" id="Rectangle-7-Copy" fill="#0097A9"></path>
                        <text id="May-/-June" font-family="OpenSans-Bold, Open Sans" font-size="12" font-weight="bold" fill="#EEEEEF">
                            <tspan x="275" y="107">May / June</tspan>
                        </text>
                        <path d="M349.000151,90 L406.66777,90 L406.66777,90 C407.019033,90 407.34454,90.1842988 407.525263,90.4855042 L421.325263,113.485504 L421.325263,113.485504 C421.609411,113.959085 421.455846,114.573345 420.982266,114.857493 C420.826851,114.950742 420.649014,115 420.46777,115 L362.800151,115 L362.800151,115 C362.448888,115 362.123381,114.815701 361.942658,114.514496 L348.142658,91.5144958 L348.142658,91.5144958 C347.85851,91.0409155 348.012075,90.4266552 348.485655,90.1425071 C348.641071,90.0492578 348.818907,90 349.000151,90 Z" id="Rectangle-7-Copy" fill="#86BC25"></path>
                        <path d="M412.76619,90 L500.43381,90 L500.43381,90 C500.785072,90 501.110579,90.1842988 501.291303,90.4855042 L515.091303,113.485504 L515.091303,113.485504 C515.375451,113.959085 515.221886,114.573345 514.748305,114.857493 C514.59289,114.950742 514.415054,115 514.23381,115 L426.56619,115 L426.56619,115 C426.214928,115 425.889421,114.815701 425.708697,114.514496 L411.908697,91.5144958 L411.908697,91.5144958 C411.624549,91.0409155 411.778114,90.4266552 412.251695,90.1425071 C412.40711,90.0492578 412.584946,90 412.76619,90 Z" id="Rectangle-7-Copy-3" fill="#0097A9"></path>
                        <text id="June" font-family="OpenSans-Bold, Open Sans" font-size="12" font-weight="bold" fill="#EEEEEF">
                            <tspan x="371" y="107">June</tspan>
                        </text>
                        <text id="June-/-July" font-family="OpenSans-Bold, Open Sans" font-size="12" font-weight="bold" fill="#EEEEEF">
                            <tspan x="433" y="107">June / July</tspan>
                        </text>
                        <path d="M614.000151,90 L681.66777,90 L681.66777,90 C682.019033,90 682.34454,90.1842988 682.525263,90.4855042 L696.325263,113.485504 L696.325263,113.485504 C696.609411,113.959085 696.455846,114.573345 695.982266,114.857493 C695.826851,114.950742 695.649014,115 695.46777,115 L627.800151,115 L627.800151,115 C627.448888,115 627.123381,114.815701 626.942658,114.514496 L613.142658,91.5144958 L613.142658,91.5144958 C612.85851,91.0409155 613.012075,90.4266552 613.485655,90.1425071 C613.641071,90.0492578 613.818907,90 614.000151,90 Z" id="Rectangle-7-Copy-3" fill="#0097A9"></path>
                        <text id="August" font-family="OpenSans-Bold, Open Sans" font-size="12" font-weight="bold" fill="#EEEEEF">
                            <tspan x="633" y="107">August</tspan>
                        </text>
                        <path d="M506.000151,90 L608.66777,90 L608.66777,90 C609.019033,90 609.34454,90.1842988 609.525263,90.4855042 L623.325263,113.485504 L623.325263,113.485504 C623.609411,113.959085 623.455846,114.573345 622.982266,114.857493 C622.826851,114.950742 622.649014,115 622.46777,115 L519.800151,115 L519.800151,115 C519.448888,115 519.123381,114.815701 518.942658,114.514496 L505.142658,91.5144958 L505.142658,91.5144958 C504.85851,91.0409155 505.012075,90.4266552 505.485655,90.1425071 C505.641071,90.0492578 505.818907,90 506.000151,90 Z" id="Rectangle-7-Copy-3" fill="#86BC25"></path>
                        <text id="July-/-August" font-family="OpenSans-Bold, Open Sans" font-size="12" font-weight="bold" fill="#EEEEEF">
                            <tspan x="526" y="107">July / August</tspan>
                        </text>
                        <g id="Group-5" transform="translate(53.000000, 51.000000)">
                            <path d="M6.159,3.08 C6.159,4.781 4.78,6.159 3.079,6.159 C1.379,6.159 0,4.781 0,3.08 C0,1.379 1.379,0 3.079,0 C4.78,0 6.159,1.379 6.159,3.08" id="Fill-19" fill="#646463"></path>
                            <path d="M3,9 L3,39.1599998" id="Line" stroke="#979797" stroke-linecap="square" stroke-dasharray="2,4"></path>
                        </g>
                        <text id="Symposium-at-Deloitt" font-family="OpenSans, Open Sans" font-size="12" font-weight="normal" line-spacing="15" fill="#000000">
                            <tspan x="337.546875" y="27.4257812">Symposium at </tspan>
                            <tspan x="325.930664" y="42.4257812">Deloitte University</tspan>
                        </text>
                        <g id="Group-5" transform="translate(381.000000, 51.000000)">
                            <path d="M6.159,3.08 C6.159,4.781 4.78,6.159 3.079,6.159 C1.379,6.159 0,4.781 0,3.08 C0,1.379 1.379,0 3.079,0 C4.78,0 6.159,1.379 6.159,3.08" id="Fill-19" fill="#646463"></path>
                            <path d="M3,9 L3,39.1599998" id="Line" stroke="#979797" stroke-linecap="square" stroke-dasharray="2,4"></path>
                        </g>
                        <text id="Regional-and-Nationa" font-family="OpenSans, Open Sans" font-size="12" font-weight="normal" line-spacing="15" fill="#000000">
                            <tspan x="524.96875" y="13">Regional and </tspan>
                            <tspan x="505" y="28">National Leadership </tspan>
                            <tspan x="541.873047" y="43">Review</tspan>
                        </text>
                        <g id="Group-5" transform="translate(560.000000, 51.000000)">
                            <path d="M6.159,3.08 C6.159,4.781 4.78,6.159 3.079,6.159 C1.379,6.159 0,4.781 0,3.08 C0,1.379 1.379,0 3.079,0 C4.78,0 6.159,1.379 6.159,3.08" id="Fill-19" fill="#646463"></path>
                            <path d="M3,9 L3,39.1599998" id="Line" stroke="#979797" stroke-linecap="square" stroke-dasharray="2,4"></path>
                        </g>
                        <g id="Group-5" transform="translate(212.000000, 51.000000)">
                            <path d="M6.159,3.08 C6.159,4.781 4.78,6.159 3.079,6.159 C1.379,6.159 0,4.781 0,3.08 C0,1.379 1.379,0 3.079,0 C4.78,0 6.159,1.379 6.159,3.08" id="Fill-19" fill="#646463"></path>
                            <path d="M3,9 L3,39.1599998" id="Line" stroke="#979797" stroke-linecap="square" stroke-dasharray="2,4"></path>
                        </g>
                        <g id="Group-4" transform="translate(130.500000, 134.000000) scale(1, -1) translate(-130.500000, -134.000000) translate(127.000000, 114.000000)">
                            <path d="M6.159,3.08 C6.159,4.781 4.78,6.159 3.079,6.159 C1.379,6.159 0,4.781 0,3.08 C0,1.379 1.379,0 3.079,0 C4.78,0 6.159,1.379 6.159,3.08" id="Fill-19" fill="#646463"></path>
                            <path d="M3,9 L3,39.1599998" id="Line" stroke="#979797" stroke-linecap="square" stroke-dasharray="2,4"></path>
                        </g>
                        <text id="Applications-availab" font-family="OpenSans, Open Sans" font-size="12" font-weight="normal" line-spacing="15" fill="#000000">
                            <tspan x="78" y="173">Applications available</tspan>
                        </text>
                        <g id="Group-4" transform="translate(306.500000, 134.000000) scale(1, -1) translate(-306.500000, -134.000000) translate(303.000000, 114.000000)">
                            <path d="M6.159,3.08 C6.159,4.781 4.78,6.159 3.079,6.159 C1.379,6.159 0,4.781 0,3.08 C0,1.379 1.379,0 3.079,0 C4.78,0 6.159,1.379 6.159,3.08" id="Fill-19" fill="#646463"></path>
                            <path d="M3,9 L3,39.1599998" id="Line" stroke="#979797" stroke-linecap="square" stroke-dasharray="2,4"></path>
                        </g>
                        <text id="Applications-due" font-family="OpenSans, Open Sans" font-size="12" font-weight="normal" line-spacing="15" fill="#000000">
                            <tspan x="260" y="173">Applications due</tspan>
                        </text>
                        <g id="Group-4" transform="translate(463.500000, 134.000000) scale(1, -1) translate(-463.500000, -134.000000) translate(460.000000, 114.000000)">
                            <path d="M6.159,3.08 C6.159,4.781 4.78,6.159 3.079,6.159 C1.379,6.159 0,4.781 0,3.08 C0,1.379 1.379,0 3.079,0 C4.78,0 6.159,1.379 6.159,3.08" id="Fill-19" fill="#646463"></path>
                            <path d="M3,9 L3,39.1599998" id="Line" stroke="#979797" stroke-linecap="square" stroke-dasharray="2,4"></path>
                        </g>
                        <text id="Local-office-present" font-family="OpenSans, Open Sans" font-size="12" font-weight="normal" line-spacing="15" fill="#000000">
                            <tspan x="432.095703" y="173">Local office </tspan>
                            <tspan x="425" y="188">presentations</tspan>
                        </text>
                        <g id="Group-4" transform="translate(654.500000, 134.000000) scale(1, -1) translate(-654.500000, -134.000000) translate(651.000000, 114.000000)">
                            <path d="M6.159,3.08 C6.159,4.781 4.78,6.159 3.079,6.159 C1.379,6.159 0,4.781 0,3.08 C0,1.379 1.379,0 3.079,0 C4.78,0 6.159,1.379 6.159,3.08" id="Fill-19" fill="#646463"></path>
                            <path d="M3,9 L3,39.1599998" id="Line" stroke="#979797" stroke-linecap="square" stroke-dasharray="2,4"></path>
                        </g>
                        <text id="Decisions-communicat" font-family="OpenSans, Open Sans" font-size="12" font-weight="normal" line-spacing="15" fill="#000000">
                            <tspan x="626.216797" y="173">Decisions </tspan>
                            <tspan x="611" y="188">communicated </tspan>
                            <tspan x="616.99707" y="203">to applicants</tspan>
                        </text>
                    </g>
                </g>
            </g>
        </g>
    </g>
</svg>